2022-10-25 18:46:22,992 p=5634 u=aleks |   [WARNING]: Unable to set correct type for configuration entry: DEFAULT_LOCAL_TMP

2022-10-25 18:46:22,992 p=5634 u=aleks |  ERROR! Unexpected Exception, this is probably a bug: [Errno 13] Permission denied: '/home/aleks/.ansible_galaxy'
2022-10-25 18:46:22,992 p=5634 u=aleks |  to see the full traceback, use -vvv
2022-10-25 18:46:23,041 p=5634 u=aleks |  the full traceback was:

Traceback (most recent call last):
  File "/usr/bin/ansible-galaxy", line 118, in <module>
    exit_code = cli.run()
  File "/usr/lib/python2.7/dist-packages/ansible/cli/galaxy.py", line 149, in run
    self.api = GalaxyAPI(self.galaxy)
  File "/usr/lib/python2.7/dist-packages/ansible/galaxy/api.py", line 67, in __init__
    self.token = GalaxyToken()
  File "/usr/lib/python2.7/dist-packages/ansible/galaxy/token.py", line 41, in __init__
    self.config = yaml.safe_load(self.__open_config_for_read())
  File "/usr/lib/python2.7/dist-packages/ansible/galaxy/token.py", line 48, in __open_config_for_read
    return open(self.file, 'r')
IOError: [Errno 13] Permission denied: '/home/aleks/.ansible_galaxy'

2022-10-25 18:47:54,503 p=5646 u=root |   [WARNING]: - supernginx was NOT installed successfully: - command git clone ssh://git@gitlab.com:aleksgn/ansible/roles/ansible-nginx-roles.git supernginx failed in
directory /tmp/tmp1hcyDw (rc=128)

2022-10-25 18:47:54,520 p=5646 u=root |  ERROR! - you can use --ignore-errors to skip failed roles and finish processing the list.
2022-10-25 18:49:05,212 p=5670 u=root |   [WARNING]: - nginx was NOT installed successfully: - command git clone ssh://git@gitlab.com:aleksgn/ansible/roles/ansible-nginx-roles.git nginx failed in directory
/tmp/tmpizr2Jp (rc=128)

2022-10-25 18:49:05,213 p=5670 u=root |  ERROR! - you can use --ignore-errors to skip failed roles and finish processing the list.
2022-10-25 18:53:37,221 p=5685 u=aleks |   [WARNING]: Unable to set correct type for configuration entry: DEFAULT_LOCAL_TMP

2022-10-25 18:53:37,221 p=5685 u=aleks |  ERROR! Unexpected Exception, this is probably a bug: [Errno 13] Permission denied: '/home/aleks/.ansible_galaxy'
2022-10-25 18:53:37,221 p=5685 u=aleks |  to see the full traceback, use -vvv
2022-10-25 18:53:37,221 p=5685 u=aleks |  the full traceback was:

Traceback (most recent call last):
  File "/usr/bin/ansible-galaxy", line 118, in <module>
    exit_code = cli.run()
  File "/usr/lib/python2.7/dist-packages/ansible/cli/galaxy.py", line 149, in run
    self.api = GalaxyAPI(self.galaxy)
  File "/usr/lib/python2.7/dist-packages/ansible/galaxy/api.py", line 67, in __init__
    self.token = GalaxyToken()
  File "/usr/lib/python2.7/dist-packages/ansible/galaxy/token.py", line 41, in __init__
    self.config = yaml.safe_load(self.__open_config_for_read())
  File "/usr/lib/python2.7/dist-packages/ansible/galaxy/token.py", line 48, in __open_config_for_read
    return open(self.file, 'r')
IOError: [Errno 13] Permission denied: '/home/aleks/.ansible_galaxy'

2022-10-25 18:57:05,062 p=5731 u=aleks |   [WARNING]: - supernginx was NOT installed successfully: - command git clone ssh://git@gitlab.com:aleksgn/ansible/roles/ansible-nginx-roles.git supernginx failed in
directory /tmp/tmpBsnyZs (rc=128)

2022-10-25 18:57:05,063 p=5731 u=aleks |  ERROR! - you can use --ignore-errors to skip failed roles and finish processing the list.
2022-10-25 18:57:47,806 p=5748 u=aleks |   [WARNING]: - nginx was NOT installed successfully: - command git clone ssh://git@gitlab.com:aleksgn/ansible/roles/ansible-nginx-roles.git nginx failed in directory
/tmp/tmpvBlv70 (rc=128)

2022-10-25 18:57:47,807 p=5748 u=aleks |  ERROR! - you can use --ignore-errors to skip failed roles and finish processing the list.
2022-10-25 19:01:02,156 p=5780 u=root |   [WARNING]: - nginx was NOT installed successfully: - command git clone ssh://git@gitlab.com:aleksgn/ansible/roles/ansible-nginx-roles.git nginx failed in directory
/tmp/tmpvMP6_0 (rc=128)

2022-10-25 19:01:02,157 p=5780 u=root |  ERROR! - you can use --ignore-errors to skip failed roles and finish processing the list.
2022-10-25 19:11:05,155 p=5850 u=aleks |  - downloading role 'git', owned by git%40gitlab.com%3Aaleksgn/ansible/roles/ansible-nginx-roles
2022-10-25 19:11:05,785 p=5850 u=aleks |   [WARNING]: - nginx was NOT installed successfully: - sorry, git@gitlab.com:aleksgn/ansible/roles/ansible-nginx-roles.git was not found on https://galaxy.ansible.com.

2022-10-25 19:11:05,785 p=5850 u=aleks |  ERROR! - you can use --ignore-errors to skip failed roles and finish processing the list.
2022-10-25 19:13:08,618 p=5857 u=aleks |  - extracting supernginx to /home/aleks/docker-cicd-django/.cicd/ansible-roles/supernginx
2022-10-25 19:13:08,620 p=5857 u=aleks |  - supernginx (v.0.1) was installed successfully
2022-10-25 19:18:43,261 p=5915 u=aleks |  Using /home/aleks/docker-cicd-django/.cicd/ansible.cfg as config file
2022-10-25 19:18:50,806 p=5915 u=aleks |  ERROR! the role 'nginx' was not found in /home/aleks/docker-cicd-django/.cicd/roles:/home/aleks/docker-cicd-django/.cicd/ansible-roles:/home/aleks/docker-cicd-django/.cicd

The error appears to have been in '/home/aleks/docker-cicd-django/.cicd/playbook.yml': line 3, column 7, but may
be elsewhere in the file depending on the exact syntax problem.

The offending line appears to be:

  roles:
    - nginx
      ^ here

2022-10-25 19:19:20,738 p=5928 u=aleks |  Using /home/aleks/docker-cicd-django/.cicd/ansible.cfg as config file
2022-10-25 19:19:29,270 p=5928 u=aleks |  ERROR! no action detected in task. This often indicates a misspelled module name, or incorrect module path.

The error appears to have been in '/home/aleks/docker-cicd-django/.cicd/ansible-roles/supernginx/tasks/main.yml': line 19, column 3, but may
be elsewhere in the file depending on the exact syntax problem.

The offending line appears to be:


- name: nginx | configure site
  ^ here

2022-10-25 19:20:16,074 p=5936 u=aleks |  Using /home/aleks/docker-cicd-django/.cicd/ansible.cfg as config file
2022-10-25 19:21:44,601 p=5958 u=aleks |  - extracting nginx to /home/aleks/docker-cicd-django/.cicd/ansible-roles/nginx
2022-10-25 19:21:44,602 p=5958 u=aleks |  - nginx (v.0.1) was installed successfully
2022-10-25 19:22:22,639 p=5980 u=aleks |  Using /home/aleks/docker-cicd-django/.cicd/ansible.cfg as config file
2022-10-25 19:22:24,725 p=5980 u=aleks |  ERROR! no action detected in task. This often indicates a misspelled module name, or incorrect module path.

The error appears to have been in '/home/aleks/docker-cicd-django/.cicd/ansible-roles/nginx/tasks/main.yml': line 19, column 3, but may
be elsewhere in the file depending on the exact syntax problem.

The offending line appears to be:


- name: nginx | configure site
  ^ here

2022-10-25 19:27:15,327 p=6108 u=aleks |  - extracting supernginx to /home/aleks/docker-cicd-django/.cicd/ansible-roles/supernginx
2022-10-25 19:27:15,328 p=6108 u=aleks |  - supernginx (v.0.1) was installed successfully
2022-10-25 19:27:35,034 p=6124 u=aleks |  Using /home/aleks/docker-cicd-django/.cicd/ansible.cfg as config file
2022-10-25 19:27:37,586 p=6124 u=aleks |  ERROR! the role 'nginx' was not found in /home/aleks/docker-cicd-django/.cicd/roles:/home/aleks/docker-cicd-django/.cicd/ansible-roles:/home/aleks/docker-cicd-django/.cicd

The error appears to have been in '/home/aleks/docker-cicd-django/.cicd/playbook.yml': line 3, column 7, but may
be elsewhere in the file depending on the exact syntax problem.

The offending line appears to be:

  roles:
    - nginx
      ^ here

2022-10-25 19:28:59,593 p=6150 u=aleks |  - extracting nginx to /home/aleks/docker-cicd-django/.cicd/ansible-roles/nginx
2022-10-25 19:28:59,595 p=6150 u=aleks |  - nginx (v.0.1) was installed successfully
2022-10-25 19:29:18,983 p=6164 u=aleks |  Using /home/aleks/docker-cicd-django/.cicd/ansible.cfg as config file
2022-10-25 19:29:21,050 p=6164 u=aleks |  ERROR! no action detected in task. This often indicates a misspelled module name, or incorrect module path.

The error appears to have been in '/home/aleks/docker-cicd-django/.cicd/ansible-roles/nginx/tasks/main.yml': line 19, column 3, but may
be elsewhere in the file depending on the exact syntax problem.

The offending line appears to be:


- name: nginx | configure site
  ^ here

2022-10-25 19:34:43,569 p=6238 u=aleks |  - extracting nginx to /home/aleks/docker-cicd-django/.cicd/ansible-roles/nginx
2022-10-25 19:34:43,571 p=6238 u=aleks |  - nginx (v.0.2) was installed successfully
2022-10-25 19:35:10,824 p=6262 u=aleks |  PLAY [web] *****************************************************************************************************************************************************************
2022-10-25 19:35:11,106 p=6262 u=aleks |  TASK [Gathering Facts] *****************************************************************************************************************************************************
2022-10-25 19:35:11,700 p=6262 u=aleks |  fatal: [devops_yc]: UNREACHABLE! => changed=false 
  msg: |-
    Failed to connect to the host via ssh: Warning: Permanently added '158.160.0.175' (ECDSA) to the list of known hosts.
    aleks@158.160.0.175: Permission denied (publickey).
  unreachable: true
2022-10-25 19:35:11,701 p=6262 u=aleks |  	to retry, use: --limit @/home/aleks/docker-cicd-django/.cicd/playbook.retry

2022-10-25 19:35:11,701 p=6262 u=aleks |  PLAY RECAP *****************************************************************************************************************************************************************
2022-10-25 19:35:11,701 p=6262 u=aleks |  devops_yc                  : ok=0    changed=0    unreachable=1    failed=0   
2022-10-25 19:39:05,805 p=6382 u=aleks |  PLAY [web] *****************************************************************************************************************************************************************
2022-10-25 19:39:05,814 p=6382 u=aleks |  TASK [Gathering Facts] *****************************************************************************************************************************************************
2022-10-25 19:39:06,085 p=6382 u=aleks |  fatal: [devops_yc]: UNREACHABLE! => changed=false 
  msg: |-
    Failed to connect to the host via ssh: Warning: Permanently added '10.129.0.21' (ECDSA) to the list of known hosts.
    aleks@10.129.0.21: Permission denied (publickey).
  unreachable: true
2022-10-25 19:39:06,087 p=6382 u=aleks |  	to retry, use: --limit @/home/aleks/docker-cicd-django/.cicd/playbook.retry

2022-10-25 19:39:06,087 p=6382 u=aleks |  PLAY RECAP *****************************************************************************************************************************************************************
2022-10-25 19:39:06,087 p=6382 u=aleks |  devops_yc                  : ok=0    changed=0    unreachable=1    failed=0   
2022-10-26 02:32:45,113 p=1790 u=aleks |  PLAY [web] *****************************************************************************************************************************************************************
2022-10-26 02:32:45,332 p=1790 u=aleks |  TASK [Gathering Facts] *****************************************************************************************************************************************************
2022-10-26 02:32:46,590 p=1790 u=aleks |  fatal: [devops_yc]: UNREACHABLE! => changed=false 
  msg: |-
    Failed to connect to the host via ssh: Warning: Permanently added '51.250.106.123' (ECDSA) to the list of known hosts.
    aleks@51.250.106.123: Permission denied (publickey).
  unreachable: true
2022-10-26 02:32:46,591 p=1790 u=aleks |  	to retry, use: --limit @/home/aleks/docker-cicd-django/.cicd/playbook.retry

2022-10-26 02:32:46,591 p=1790 u=aleks |  PLAY RECAP *****************************************************************************************************************************************************************
2022-10-26 02:32:46,591 p=1790 u=aleks |  devops_yc                  : ok=0    changed=0    unreachable=1    failed=0   
2022-10-26 02:33:40,605 p=1812 u=aleks |  Using /home/aleks/docker-cicd-django/.cicd/ansible.cfg as config file
2022-10-26 02:33:43,121 p=1812 u=aleks |  PLAY [web] *****************************************************************************************************************************************************************
2022-10-26 02:33:43,130 p=1812 u=aleks |  TASK [Gathering Facts] *****************************************************************************************************************************************************
2022-10-26 02:33:43,464 p=1812 u=aleks |  fatal: [devops_yc]: UNREACHABLE! => changed=false 
  msg: |-
    Failed to connect to the host via ssh: aleks@51.250.106.123: Permission denied (publickey).
  unreachable: true
2022-10-26 02:33:43,465 p=1812 u=aleks |  	to retry, use: --limit @/home/aleks/docker-cicd-django/.cicd/playbook.retry

2022-10-26 02:33:43,465 p=1812 u=aleks |  PLAY RECAP *****************************************************************************************************************************************************************
2022-10-26 02:33:43,465 p=1812 u=aleks |  devops_yc                  : ok=0    changed=0    unreachable=1    failed=0   
2022-10-26 02:35:10,083 p=1847 u=aleks |  Using /home/aleks/docker-cicd-django/.cicd/ansible.cfg as config file
2022-10-26 02:35:13,102 p=1847 u=aleks |  PLAY [web] *****************************************************************************************************************************************************************
2022-10-26 02:35:13,111 p=1847 u=aleks |  TASK [Gathering Facts] *****************************************************************************************************************************************************
2022-10-26 02:35:13,448 p=1847 u=aleks |  fatal: [devops]: UNREACHABLE! => changed=false 
  msg: |-
    Failed to connect to the host via ssh: aleks@51.250.106.123: Permission denied (publickey).
  unreachable: true
2022-10-26 02:35:13,449 p=1847 u=aleks |  	to retry, use: --limit @/home/aleks/docker-cicd-django/.cicd/playbook.retry

2022-10-26 02:35:13,449 p=1847 u=aleks |  PLAY RECAP *****************************************************************************************************************************************************************
2022-10-26 02:35:13,449 p=1847 u=aleks |  devops                     : ok=0    changed=0    unreachable=1    failed=0   
2022-10-26 02:36:54,312 p=1878 u=aleks |  Using /home/aleks/docker-cicd-django/.cicd/ansible.cfg as config file
2022-10-26 02:36:56,110 p=1878 u=aleks |  PLAY [web] *****************************************************************************************************************************************************************
2022-10-26 02:36:56,118 p=1878 u=aleks |  TASK [Gathering Facts] *****************************************************************************************************************************************************
2022-10-26 02:36:56,411 p=1878 u=aleks |  fatal: [devops]: UNREACHABLE! => changed=false 
  msg: |-
    Failed to connect to the host via ssh: Warning: Permanently added '127.0.0.1' (ECDSA) to the list of known hosts.
    aleks@127.0.0.1: Permission denied (publickey).
  unreachable: true
2022-10-26 02:36:56,412 p=1878 u=aleks |  	to retry, use: --limit @/home/aleks/docker-cicd-django/.cicd/playbook.retry

2022-10-26 02:36:56,412 p=1878 u=aleks |  PLAY RECAP *****************************************************************************************************************************************************************
2022-10-26 02:36:56,412 p=1878 u=aleks |  devops                     : ok=0    changed=0    unreachable=1    failed=0   
2022-10-26 02:40:07,202 p=1939 u=aleks |  Using /home/aleks/docker-cicd-django/.cicd/ansible.cfg as config file
2022-10-26 02:40:09,679 p=1939 u=aleks |  PLAY [web] *****************************************************************************************************************************************************************
2022-10-26 02:40:09,687 p=1939 u=aleks |  TASK [Gathering Facts] *****************************************************************************************************************************************************
2022-10-26 02:40:10,545 p=1939 u=aleks |  ok: [devops_yc]
2022-10-26 02:40:10,553 p=1939 u=aleks |  TASK [nginx : nginx | install nginx] ***************************************************************************************************************************************
2022-10-26 02:40:11,022 p=1939 u=aleks |  fatal: [devops_yc]: FAILED! => changed=false 
  cmd: apt-get update
  msg: |-
    E: Could not open lock file /var/lib/apt/lists/lock - open (13: Permission denied)
    E: Unable to lock directory /var/lib/apt/lists/
    W: Problem unlinking the file /var/cache/apt/pkgcache.bin - RemoveCaches (13: Permission denied)
    W: Problem unlinking the file /var/cache/apt/srcpkgcache.bin - RemoveCaches (13: Permission denied)
  rc: 100
  stderr: |-
    E: Could not open lock file /var/lib/apt/lists/lock - open (13: Permission denied)
    E: Unable to lock directory /var/lib/apt/lists/
    W: Problem unlinking the file /var/cache/apt/pkgcache.bin - RemoveCaches (13: Permission denied)
    W: Problem unlinking the file /var/cache/apt/srcpkgcache.bin - RemoveCaches (13: Permission denied)
  stderr_lines:
  - 'E: Could not open lock file /var/lib/apt/lists/lock - open (13: Permission denied)'
  - 'E: Unable to lock directory /var/lib/apt/lists/'
  - 'W: Problem unlinking the file /var/cache/apt/pkgcache.bin - RemoveCaches (13: Permission denied)'
  - 'W: Problem unlinking the file /var/cache/apt/srcpkgcache.bin - RemoveCaches (13: Permission denied)'
  stdout: |-
    Reading package lists...
  stdout_lines: <omitted>
2022-10-26 02:40:11,023 p=1939 u=aleks |  	to retry, use: --limit @/home/aleks/docker-cicd-django/.cicd/playbook.retry

2022-10-26 02:40:11,024 p=1939 u=aleks |  PLAY RECAP *****************************************************************************************************************************************************************
2022-10-26 02:40:11,024 p=1939 u=aleks |  devops_yc                  : ok=1    changed=0    unreachable=0    failed=1   
2022-10-26 02:40:47,573 p=2068 u=root |  Using /home/aleks/docker-cicd-django/.cicd/ansible.cfg as config file
2022-10-26 02:40:49,836 p=2068 u=root |  PLAY [web] *****************************************************************************************************************************************************************
2022-10-26 02:40:49,845 p=2068 u=root |  TASK [Gathering Facts] *****************************************************************************************************************************************************
2022-10-26 02:40:50,367 p=2068 u=root |  ok: [devops_yc]
2022-10-26 02:40:50,374 p=2068 u=root |  TASK [nginx : nginx | install nginx] ***************************************************************************************************************************************
2022-10-26 02:40:50,821 p=2068 u=root |  fatal: [devops_yc]: FAILED! => changed=false 
  cmd: apt-get update
  msg: |-
    E: Could not open lock file /var/lib/apt/lists/lock - open (13: Permission denied)
    E: Unable to lock directory /var/lib/apt/lists/
    W: Problem unlinking the file /var/cache/apt/pkgcache.bin - RemoveCaches (13: Permission denied)
    W: Problem unlinking the file /var/cache/apt/srcpkgcache.bin - RemoveCaches (13: Permission denied)
  rc: 100
  stderr: |-
    E: Could not open lock file /var/lib/apt/lists/lock - open (13: Permission denied)
    E: Unable to lock directory /var/lib/apt/lists/
    W: Problem unlinking the file /var/cache/apt/pkgcache.bin - RemoveCaches (13: Permission denied)
    W: Problem unlinking the file /var/cache/apt/srcpkgcache.bin - RemoveCaches (13: Permission denied)
  stderr_lines:
  - 'E: Could not open lock file /var/lib/apt/lists/lock - open (13: Permission denied)'
  - 'E: Unable to lock directory /var/lib/apt/lists/'
  - 'W: Problem unlinking the file /var/cache/apt/pkgcache.bin - RemoveCaches (13: Permission denied)'
  - 'W: Problem unlinking the file /var/cache/apt/srcpkgcache.bin - RemoveCaches (13: Permission denied)'
  stdout: |-
    Reading package lists...
  stdout_lines: <omitted>
2022-10-26 02:40:50,822 p=2068 u=root |  	to retry, use: --limit @/home/aleks/docker-cicd-django/.cicd/playbook.retry

2022-10-26 02:40:50,823 p=2068 u=root |  PLAY RECAP *****************************************************************************************************************************************************************
2022-10-26 02:40:50,823 p=2068 u=root |  devops_yc                  : ok=1    changed=0    unreachable=0    failed=1   
